8bit-micro-computer/output/output.vcd
$date
	Tue Mar 23 09:08:08 2021
$end
$version
	Icarus Verilog
$end
$timescale
	1ps
$end
$scope module CPUtb $end
$var wire 8 ! outPut [7:0] $end
$var wire 7 " LED2 [6:0] $end
$var wire 7 # LED1 [6:0] $end
$var reg 1 $ clk $end
$scope module cpu $end
$var wire 8 % bus [7:0] $end
$var wire 1 & clk $end
$var wire 1 $ clkin $end
$var wire 1 ' flag $end
$var wire 8 ( aluOut [7:0] $end
$var wire 1 ) SU $end
$var wire 1 * SO $end
$var wire 1 + RO $end
$var wire 1 , RI $end
$var wire 4 - Pcount [3:0] $end
$var wire 8 . OutPut [7:0] $end
$var wire 1 / OI $end
$var wire 1 0 MI $end
$var wire 7 1 LED2 [6:0] $end
$var wire 7 2 LED1 [6:0] $end
$var wire 1 3 J $end
$var wire 8 4 Instout [7:0] $end
$var wire 1 5 IO $end
$var wire 1 6 II $end
$var wire 1 7 HLT $end
$var wire 1 8 CO $end
$var wire 1 9 CE $end
$var wire 8 : Bout [7:0] $end
$var wire 1 ; BI $end
$var wire 8 < Aout [7:0] $end
$var wire 4 = Addr_in [3:0] $end
$var wire 1 > AO $end
$var wire 1 ? AI $end
$scope module A $end
$var wire 1 @ CLK $end
$var wire 8 A D [7:0] $end
$var wire 1 ? EI $end
$var wire 1 & clk $end
$var reg 8 B Q [7:0] $end
$upscope $end
$scope module B $end
$var wire 1 C CLK $end
$var wire 8 D D [7:0] $end
$var wire 1 ; EI $end
$var wire 1 & clk $end
$var reg 8 E Q [7:0] $end
$upscope $end
$scope module InstReg $end
$var wire 1 F CLK $end
$var wire 8 G D [7:0] $end
$var wire 1 6 EI $end
$var wire 1 & clk $end
$var reg 8 H Q [7:0] $end
$upscope $end
$scope module MemAdd $end
$var wire 1 I CLK $end
$var wire 4 J D [3:0] $end
$var wire 1 0 EI $end
$var wire 1 & clk $end
$var reg 4 K Q [3:0] $end
$upscope $end
$scope module O $end
$var wire 1 L CLK $end
$var wire 8 M D [7:0] $end
$var wire 1 / EI $end
$var wire 1 & clk $end
$var reg 8 N Q [7:0] $end
$upscope $end
$scope module alu $end
$var wire 8 O A [7:0] $end
$var wire 8 P B [7:0] $end
$var wire 1 ) op $end
$var wire 9 Q res [8:0] $end
$upscope $end
$scope module ic $end
$var wire 1 R CLK $end
$var wire 4 S Instruction [3:0] $end
$var wire 1 & clk $end
$var wire 1 T enable $end
$var reg 3 U Inst_count [2:0] $end
$var reg 15 V ctrl_wrd [14:0] $end
$var reg 1 W reset_in $end
$upscope $end
$scope module pc $end
$var wire 1 X CLK $end
$var wire 1 & clk $end
$var wire 1 9 enable $end
$var wire 1 3 jmp $end
$var wire 4 Y jmploc [3:0] $end
$var wire 1 Z rst $end
$var reg 4 [ count [3:0] $end
$upscope $end
$scope module ram $end
$var wire 4 \ address [3:0] $end
$var wire 1 ] clk $end
$var wire 8 ^ data [7:0] $end
$var wire 1 + read_enable $end
$var wire 1 , write_enable $end
$var reg 8 _ buffer [7:0] $end
$upscope $end
$scope module seg0 $end
$var wire 4 ` bcd [3:0] $end
$var reg 7 a seg [6:0] $end
$upscope $end
$scope module seg1 $end
$var wire 4 b bcd [3:0] $end
$var reg 7 c seg [6:0] $end
$upscope $end
$scope module triA $end
$var wire 8 d data [7:0] $end
$var wire 8 e dataOut [7:0] $end
$var wire 1 > enable $end
$upscope $end
$scope module triInstReg $end
$var wire 4 f data [3:0] $end
$var wire 1 5 enable $end
$var wire 4 g dataOut [3:0] $end
$upscope $end
$scope module tri_alu $end
$var wire 8 h data [7:0] $end
$var wire 8 i dataOut [7:0] $end
$var wire 1 * enable $end
$upscope $end
$scope module tripc $end
$var wire 4 j data [3:0] $end
$var wire 1 8 enable $end
$var wire 4 k dataOut [3:0] $end
$upscope $end
$upscope $end
$upscope $end
$enddefinitions $end
#0
$dumpvars
b0 k
b0 j
bz0000 i
bx h
bz g
bx f
bz0000 e
bx d
bx c
bx b
bx a
bx `
bx _
bz0000 ^
1]
bx \
b0 [
0Z
b0 Y
0X
0W
b10000000000010 V
b0 U
1T
bx S
1R
bx Q
bx P
bx O
bx N
bz0000 M
0L
bx K
b0 J
0I
bx H
bz0000 G
0F
bx E
bz0000 D
0C
bx B
bz0000 A
0@
0?
0>
bx =
bx <
0;
bx :
09
18
07
06
05
bx 4
03
bx 2
bx 1
10
0/
bx .
b0 -
0,
0+
0*
0)
bx (
x'
0&
bz0000 %
0$
bx #
bx "
bx !
$end
#10000
b0 =
b0 K
b0 \
0R
0]
1I
1&
1$
#20000
b11100 _
b1100 Y
b1100 J
b11100 %
b11100 A
b11100 D
b11100 G
b11100 M
b11100 ^
b11100 e
b11100 i
bz k
08
19
16
1+
00
b101000000100 V
b1 U
1R
1]
0I
0&
0$
#30000
b1 S
b1100 f
b11100 4
b11100 H
b1 -
b1 [
b1 j
0R
0]
1F
1X
1&
1$
#40000
bz1100 %
bz1100 A
bz1100 D
bz1100 G
bz1100 M
bz1100 ^
bz1100 e
bz1100 i
b1100 g
09
06
15
0+
10
b10010000000000 V
b10 U
1R
1]
0F
0X
0&
0$
#50000
b1100 =
b1100 K
b1100 \
0R
0]
1I
1&
1$
#60000
b1 Y
b1 J
b1 _
b1 %
b1 A
b1 D
b1 G
b1 M
b1 ^
b1 e
b1 i
bz g
1?
05
1+
00
b100100000000 V
b11 U
1R
1]
0I
0&
0$
#70000
b1 <
b1 B
b1 O
b1 d
0R
0]
1@
1&
1$
#80000
bz Y
bz J
bz %
bz A
bz D
bz G
bz M
bz ^
bz e
bz i
0?
0+
1W
b0 V
b100 U
1R
1]
0@
0&
0$
#90000
0R
0]
1&
1$
#100000
b1 Y
b1 J
bz0001 %
bz0001 A
bz0001 D
bz0001 G
bz0001 M
bz0001 ^
bz0001 e
bz0001 i
b1 k
18
10
b10000000000010 V
0W
b0 U
1R
1]
0&
0$
#110000
b1 =
b1 K
b1 \
0R
0]
1I
1&
1$
#120000
b1011 Y
b1011 J
b101011 _
b101011 %
b101011 A
b101011 D
b101011 G
b101011 M
b101011 ^
b101011 e
b101011 i
bz k
08
19
16
1+
00
b101000000100 V
b1 U
1R
1]
0I
0&
0$
#130000
b10 S
b1011 f
b101011 4
b101011 H
b10 -
b10 [
b10 j
0R
0]
1F
1X
1&
1$
#140000
bz1011 %
bz1011 A
bz1011 D
bz1011 G
bz1011 M
bz1011 ^
bz1011 e
bz1011 i
b1011 g
09
06
15
0+
10
b10010000000000 V
b10 U
1R
1]
0F
0X
0&
0$
#150000
b1011 =
b1011 K
b1011 \
0R
0]
1I
1&
1$
#160000
b10 Y
b10 J
b10 _
b10 %
b10 A
b10 D
b10 G
b10 M
b10 ^
b10 e
b10 i
bz g
1;
05
1+
00
b100000010000 V
b11 U
1R
1]
0I
0&
0$
#170000
b11 (
b11 h
0'
b11 Q
b10 :
b10 E
b10 P
0R
0]
1C
1&
1$
#180000
b11 Y
b11 J
b11 %
b11 A
b11 D
b11 G
b11 M
b11 ^
b11 e
b11 i
0;
1*
1?
0+
1W
b101000000 V
b100 U
1R
1]
0C
0&
0$
#190000
b101 Y
b101 J
b101 %
b101 A
b101 D
b101 G
b101 M
b101 ^
b101 e
b101 i
b101 (
b101 h
b101 Q
b11 <
b11 B
b11 O
b11 d
0R
0]
1@
1&
1$
#200000
b10 Y
b10 J
b10 k
bz0010 %
bz0010 A
bz0010 D
bz0010 G
bz0010 M
bz0010 ^
bz0010 e
bz0010 i
18
0*
0?
10
b10000000000010 V
0W
b0 U
1R
1]
0@
0&
0$
#210000
b10 =
b10 K
b10 \
0R
0]
1I
1&
1$
#220000
b0 Y
b0 J
b11100000 _
b11100000 %
b11100000 A
b11100000 D
b11100000 G
b11100000 M
b11100000 ^
b11100000 e
b11100000 i
bz k
08
19
16
1+
00
b101000000100 V
b1 U
1R
1]
0I
0&
0$
#230000
b1110 S
b0 f
b11100000 4
b11100000 H
b11 -
b11 [
b11 j
0R
0]
1F
1X
1&
1$
#240000
b11 Y
b11 J
b11 %
b11 A
b11 D
b11 G
b11 M
b11 ^
b11 e
b11 i
09
1/
1>
06
0+
b10001000 V
b10 U
1R
1]
0F
0X
0&
0$
#250000
b1111110 "
b1111110 1
b1111110 c
b1111001 #
b1111001 2
b1111001 a
b0 b
b11 `
b11 !
b11 .
b11 N
0R
0]
1L
1&
1$
#260000
bz Y
bz J
bz %
bz A
bz D
bz G
bz M
bz ^
bz e
bz i
0/
0>
b0 V
b11 U
1R
1]
0L
0&
0$
#270000
0R
0]
1&
1$
#280000
1W
b100 U
1R
1]
0&
0$
#290000
0R
0]
1&
1$
#300000
b11 Y
b11 J
bz0011 %
bz0011 A
bz0011 D
bz0011 G
bz0011 M
bz0011 ^
bz0011 e
bz0011 i
b11 k
18
10
b10000000000010 V
0W
b0 U
1R
1]
0&
0$
#310000
b11 =
b11 K
b11 \
0R
0]
1I
1&
1$
#320000
b11110000 _
b0 Y
b0 J
b11110000 %
b11110000 A
b11110000 D
b11110000 G
b11110000 M
b11110000 ^
b11110000 e
b11110000 i
bz k
08
19
16
1+
00
b101000000100 V
b1 U
1R
1]
0I
0&
0$
#330000
b1111 S
b11110000 4
b11110000 H
b100 -
b100 [
b100 j
0R
0]
1F
1X
1&
1$
#340000
bz Y
bz J
bz %
bz A
bz D
bz G
bz M
bz ^
bz e
bz i
09
06
0+
17
b100000000000000 V
b10 U
1R
1]
0F
0X
0&
0$
